-------------------------------------------------------------------------------
Test set: co.uk.jpmc.service.GCCWorkWeekTest
-------------------------------------------------------------------------------
Tests run: 4, Failures: 0, Errors: 0, Skipped: 0, Time elapsed: 0.179 s - in co.uk.jpmc.service.GCCWorkWeekTest
