co\uk\jpmc\service\SettlementCalculationService.class
co\uk\jpmc\beans\TradeType.class
co\uk\jpmc\beans\TradeInstruction.class
co\uk\jpmc\service\WorkWeek.class
co\uk\jpmc\service\GCCWorkWeek.class
co\uk\jpmc\beans\data\TradeInstructionPopulator.class
co\uk\jpmc\exception\JPMCRuntimeException.class
co\uk\jpmc\service\SettlementDateService.class
co\uk\jpmc\service\ReportGenerationService.class
co\uk\jpmc\app\DailyTradeReportingApp.class
co\uk\jpmc\beans\Rank.class
co\uk\jpmc\service\NormalWorkWeek.class
