C:\code\jp-uk101\jp-uk101\src\test\java\co\uk\jpmc\service\NormalWorkWeekTest.java
C:\code\jp-uk101\jp-uk101\src\test\java\co\uk\jpmc\service\SettlementCalculationServiceTest.java
C:\code\jp-uk101\jp-uk101\src\test\java\co\uk\jpmc\service\SettlementDateServiceTest.java
C:\code\jp-uk101\jp-uk101\src\test\java\co\uk\jpmc\service\TradeInstructionTest.java
C:\code\jp-uk101\jp-uk101\src\test\java\co\uk\jpmc\service\GCCWorkWeekTest.java
